{
  "version": 2,
  "builds": [
    {
      "src": "nuxt.config.js",
      "use": "@nuxtjs/now-builder",
      "config": {
        "serverFiles": []
      }
    }
  ],
  "routes": [
    {
      "src": "/_nuxt/.+",
      "headers": {
        "Cache-Control": "max-age=31557600"
      }
    },
    {
      "src": "/(.*)",
      "dest": "/"
    }
  ]
}
